%YAML 1.1
%TAG !u! tag:unity3d.com,2011:
--- !u!162 &1
EditorUserSettings:
  m_ObjectHideFlags: 0
  serializedVersion: 4
  m_ConfigSettings:
    RecentlyUsedSceneGuid-0:
      value: 5a08075101565d0a0f080d7745745e444016197a742c74647e7b4c66b3b1326f
      flags: 0
    RecentlyUsedSceneGuid-1:
      value: 5b520d0503545b0d0c0c0a2715770748154f4d2c7d7d7e627a7d4a35b4e1646a
      flags: 0
    RecentlyUsedSceneGuid-2:
      value: 0209025555565e5f5a590e7542700e444615407f752b75617e701e60e7b1663e
      flags: 0
    RecentlyUsedSceneGuid-3:
      value: 5107050257045a5f5856587442700744104f1e2c7e7b74347b791f6ab4e1303a
      flags: 0
    RecentlyUsedSceneGuid-4:
      value: 06500155065158590e5b0e714377064441164a2c797c773575704e65b2b3643b
      flags: 0
    vcSharedLogLevel:
      value: 0d5e400f0650
      flags: 0
  m_VCAutomaticAdd: 1
  m_VCDebugCom: 0
  m_VCDebugCmd: 0
  m_VCDebugOut: 0
  m_SemanticMergeMode: 2
  m_DesiredImportWorkerCount: 4
  m_StandbyImportWorkerCount: 2
  m_IdleImportWorkerShutdownDelay: 60000
  m_VCShowFailedCheckout: 1
  m_VCOverwriteFailedCheckoutAssets: 1
  m_VCProjectOverlayIcons: 1
  m_VCHierarchyOverlayIcons: 1
  m_VCOtherOverlayIcons: 1
  m_VCAllowAsyncUpdate: 1
  m_ArtifactGarbageCollection: 1
